time,lat,lon,elevation,accuracy,bearing,speed,satellites,provider
2016-03-28T17:48:38Z,35.307994,-80.729008,191.000000,13.000000,0.000000,0.000000,14,gps
2016-03-28T17:48:50Z,35.307985,-80.729036,188.000000,10.000000,0.000000,0.000000,12,gps
2016-03-28T17:49:00Z,35.308011,-80.728998,180.000000,10.000000,0.000000,0.000000,12,gps
2016-03-28T17:49:09Z,35.308018,-80.728968,178.000000,10.000000,0.000000,0.000000,12,gps
2016-03-28T17:49:27Z,35.308035,-80.728960,177.000000,14.000000,0.000000,0.000000,9,gps
